<svg id="Health_Sports_Icon" data-name="Health &amp; Sports Icon" xmlns="http://www.w3.org/2000/svg" width="30" height="30" viewBox="0 0 30 30">
  <circle id="Ellipse_245" data-name="Ellipse 245" cx="15" cy="15" r="15" fill="#fe5108"/>
  <g id="heart-fill" transform="translate(-3.578 13)">
    <path id="Path_1181" data-name="Path 1181" d="M10.581,1.738c5.87-6.034,20.544,4.524,0,18.1C-9.964,6.264,4.711-4.3,10.581,1.738Z" transform="translate(8 -6)" fill="#fff" fill-rule="evenodd"/>
  </g>
  <path id="XMLID_158_" d="M26.951,172.414h5.792l1.9-4.532,1.6,5.991,2.118-8.529,1.925,9.969,1.944-5.593,1.266,3.2h5.286" transform="translate(-23.201 -153.7)" fill="none" stroke="#fe5108" stroke-linejoin="round" stroke-miterlimit="10" stroke-width="1"/>
</svg>
