<svg id="Tech_Streaming_Icon" data-name="Tech &amp; Streaming Icon" xmlns="http://www.w3.org/2000/svg" width="30" height="30" viewBox="0 0 30 30">
  <circle id="Ellipse_244" data-name="Ellipse 244" cx="15" cy="15" r="15" fill="#a7174c"/>
  <g id="_517584664" transform="translate(5.592 7.471)">
    <path id="Path_1188" data-name="Path 1188" d="M1480.485,1988.461l-2.626,1.418,0-2.184v-.663l1.185.646Zm3.14-1.924a2.266,2.266,0,0,0-.386-1.006,1.357,1.357,0,0,0-.974-.429c-1.362-.1-3.4-.1-3.4-.1h0s-2.043,0-3.4.1a1.356,1.356,0,0,0-.974.429,2.265,2.265,0,0,0-.386,1.006,15.784,15.784,0,0,0-.1,1.642v.767a15.788,15.788,0,0,0,.1,1.642,2.266,2.266,0,0,0,.386,1.006,1.6,1.6,0,0,0,1.072.431c.779.078,3.3.1,3.3.1s2.043-.005,3.4-.106a1.357,1.357,0,0,0,.974-.429,2.267,2.267,0,0,0,.386-1.006,16.2,16.2,0,0,0,.1-1.642v-.767A16.2,16.2,0,0,0,1483.625,1986.536Z" transform="translate(-1470.343 -1980.054)" fill="#fff" fill-rule="evenodd"/>
    <path id="Path_1189" data-name="Path 1189" d="M41.02,32.545A8.51,8.51,0,1,1,32.51,24h8.528v8.545ZM32.51,24.9a7.608,7.608,0,0,1,7.607,7.61v.035A7.608,7.608,0,1,1,32.51,24.9Z" transform="translate(-24 -24)" fill="#fff" stroke="#fff" stroke-width="0.6" fill-rule="evenodd"/>
  </g>
</svg>
